[{
    "Description": "Activate deleted case",
    "Name": "ActivateDeletedMappe",
    "Parameters": {
        "Parameter": [
            {
                "Name": "sakId",
                "Type": "Int32"
            }
        ]
    }
}, {
    "Description": "Activate passive cases that have expired passive-expiration-date handler",
    "Name": "ActivatePassiveCases",
    "Parameters": null
}, {
    "Description": "Adds a log entry",
    "Name": "AddLogEntry",
    "Parameters": {
        "Parameter": [
            {
                "Name": "objectName",
                "Type": "String"
            },
            {
                "Name": "objectDescription",
                "Type": "String"
            },
            {
                "Name": "text",
                "Type": "String"
            },
            {
                "Name": "eventType",
                "Type": "String"
            },
            {
                "Name": "primaryKeys",
                "Type": "String"
            },
            {
                "Name": "daysToKeep",
                "Type": "Int32"
            },
            {
                "Name": "isNoarkDemand",
                "Type": "Boolean"
            }
        ]
    }
}, {
    "Description": "Avskriver den angitte journalposten.",
    "Name": "AvskrivJournalpost",
    "Parameters": {
        "Parameter": [
            {
                "Name": "journalpostId",
                "Type": "Int32"
            },
            {
                "Name": "avsenderMottakerId",
                "Type": "Int32"
            },
            {
                "Name": "avskrivingsmaate",
                "Type": "String"
            },
            {
                "Name": "merknad",
                "Type": "String"
            }
        ]
    }
}, {
    "Description": "Avskriver en journalpost uten å opprette en et utgående brev etc.",
    "Name": "AvskrivJournalpostDirekte",
    "Parameters": {
        "Parameter": [
            {
                "Name": "journalpostId",
                "Type": "Int32"
            },
            {
                "Name": "avskrivingsmaate",
                "Type": "String"
            },
            {
                "Name": "merknad",
                "Type": "String"
            }
        ]
    }
}, {
    "Description": "Avskriver den angitte journalposten.",
    "Name": "AvskrivJournalposter",
    "Parameters": {
        "Parameter": [
            {
                "Name": "avskrivingsmaate",
                "Type": "String"
            },
            {
                "Name": "avsenderMottakerId",
                "Type": "String"
            },
            {
                "Name": "merknad",
                "Type": "String"
            },
            {
                "Name": "journalpostIder",
                "Type": "String"
            }
        ]
    }
}, {
    "Description": "Avskriver og avslutter sak",
    "Name": "AvskrivOgAvsluttSak",
    "Parameters": {
        "Parameter": [
            {
                "Name": "sakId",
                "Type": "Int32"
            }
        ]
    }
}, {
    "Description": "Besvarer en eller flere inngående journalposter med en utgående journalpost",
    "Name": "BesvarInngaaendeJournalposterMedUtgaaende",
    "Parameters": {
        "Parameter": [
            {
                "Name": "besvarerAvsenderMottakerId",
                "Type": "Int32"
            },
            {
                "Name": "journalpostIdDetAvskrivesMed",
                "Type": "Int32"
            },
            {
                "Name": "avskrivingsmaate",
                "Type": "String"
            },
            {
                "Name": "journalpostIderSomSkalAvskrives",
                "Type": "String"
            },
            {
                "Name": "dokumentkategori",
                "Type": "String"
            }
        ]
    }
}, {
    "Description": "Besvarer en journalpost",
    "Name": "BesvarJournalpost",
    "Parameters": {
        "Parameter": [
            {
                "Name": "journalpostId",
                "Type": "Int32"
            },
            {
                "Name": "besvarerAvsenderMottakerId",
                "Type": "Int32"
            },
            {
                "Name": "dokumenttype",
                "Type": "String"
            },
            {
                "Name": "avskrivingsmaate",
                "Type": "String"
            },
            {
                "Name": "innhold",
                "Type": "String"
            },
            {
                "Name": "skjermetInnhold",
                "Type": "String"
            },
            {
                "Name": "tilgangskode",
                "Type": "String"
            },
            {
                "Name": "tilgangsgruppeId",
                "Type": "Int32"
            },
            {
                "Name": "untattOffentlighet",
                "Type": "String"
            },
            {
                "Name": "avgraderingskode",
                "Type": "String"
            },
            {
                "Name": "avgraderingsdato",
                "Type": "String"
            },
            {
                "Name": "dokumentkategori",
                "Type": "String"
            }
        ]
    }
}, {
    "Description": "Besvarer en journalpost med skjerming",
    "Name": "BesvarJournalpostMedSkjerming",
    "Parameters": {
        "Parameter": [
            {
                "Name": "journalpostId",
                "Type": "Int32"
            },
            {
                "Name": "besvarerAvsenderMottakerId",
                "Type": "Int32"
            },
            {
                "Name": "dokumenttype",
                "Type": "String"
            },
            {
                "Name": "avskrivingsmaate",
                "Type": "String"
            },
            {
                "Name": "innholdsbeskrivelse",
                "Type": "String"
            },
            {
                "Name": "innholdsbeskrivelseSkjermet",
                "Type": "String"
            },
            {
                "Name": "innholdsbeskrivelsePersonnavn",
                "Type": "String"
            },
            {
                "Name": "tilgangskode",
                "Type": "String"
            },
            {
                "Name": "tilgangsgruppeId",
                "Type": "Int32"
            },
            {
                "Name": "untattOffentlighet",
                "Type": "String"
            },
            {
                "Name": "avgraderingskode",
                "Type": "String"
            },
            {
                "Name": "avgraderingsdato",
                "Type": "String"
            },
            {
                "Name": "dokumentkategori",
                "Type": "String"
            }
        ]
    }
}, {
    "Description": "Besvarer journalpost for GACKUtf",
    "Name": "BesvarJournpostHandlerEditGackUtf",
    "Parameters": {
        "Parameter": [
            {
                "Name": "Dokumenttype",
                "Type": "String"
            },
            {
                "Name": "Avskrivingsmaate",
                "Type": "String"
            },
            {
                "Name": "AvskriverJournalPosterIderString",
                "Type": "String"
            },
            {
                "Name": "BesvarerAvsenderMottakerId",
                "Type": "Int32"
            },
            {
                "Name": "AvskrevetAvJournalPostId",
                "Type": "String"
            }
        ]
    }
}, {
    "Description": "Creates a tiltaksak(Action case).",
    "Name": "BufaCreateTiltakSak",
    "Parameters": {
        "Parameter": [
            {
                "Name": "RegistryEntryId",
                "Type": "Int32"
            },
            {
                "Name": "DocumentId",
                "Type": "Int32"
            }
        ]
    }
}, {
    "Description": "Bygger opp logg",
    "Name": "ByggOppLogg",
    "Parameters": {
        "Parameter": [
            {
                "Name": "saksId",
                "Type": "Int32"
            },
            {
                "Name": "journalpostId",
                "Type": "Int32"
            },
            {
                "Name": "loggtype",
                "Type": "String"
            },
            {
                "Name": "loggtekst",
                "Type": "String"
            }
        ]
    }
}, {
    "Description": "Cancel Checkout of a given document",
    "Name": "CancelCheckoutDocument",
    "Parameters": {
        "Parameter": [
            {
                "Name": "docId",
                "Type": "Int32"
            },
            {
                "Name": "version",
                "Type": "Int32"
            },
            {
                "Name": "variant",
                "Type": "String"
            },
            {
                "Name": "jpId",
                "Type": "Int32"
            },
            {
                "Name": "mdId",
                "Type": "Int32"
            },
            {
                "Name": "ubId",
                "Type": "Int32"
            }
        ]
    }
}, {
    "Description": "Cancels all PDF conversion tasks for a given registry entry.",
    "Name": "CancelPdfConversion",
    "Parameters": {
        "Parameter": [
            {
                "Name": "RegistryEntryId",
                "Type": "Int32"
            }
        ]
    }
}, {
    "Description": "CanEditPredefinedSearchHandler",
    "Name": "CanEditPredefinedSearchHandler",
    "Parameters": {
        "Parameter": [
            {
                "Name": "PredefSearchId",
                "Type": "Int32"
            }
        ]
    }
}, {
    "Description": "Change password",
    "Name": "ChangePassword",
    "Parameters": {
        "Parameter": [
            {
                "Name": "oldPassword",
                "Type": "String"
            },
            {
                "Name": "newPassword",
                "Type": "String"
            }
        ]
    }
}, {
    "Description": "Checks in a given document",
    "Name": "CheckInDocument",
    "Parameters": {
        "Parameter": [
            {
                "Name": "docId",
                "Type": "Int32"
            },
            {
                "Name": "version",
                "Type": "Int32"
            },
            {
                "Name": "variant",
                "Type": "String"
            },
            {
                "Name": "jpId",
                "Type": "Int32"
            },
            {
                "Name": "mdId",
                "Type": "Int32"
            },
            {
                "Name": "moId",
                "Type": "Int32"
            },
            {
                "Name": "ubId",
                "Type": "Int32"
            },
            {
                "Name": "dokType",
                "Type": "String"
            }
        ]
    }
}, {
    "Description": "Checks out a given document",
    "Name": "CheckOutDocument",
    "Parameters": {
        "Parameter": [
            {
                "Name": "docId",
                "Type": "Int32"
            },
            {
                "Name": "version",
                "Type": "Int32"
            },
            {
                "Name": "variant",
                "Type": "String"
            },
            {
                "Name": "jpId",
                "Type": "Int32"
            },
            {
                "Name": "mdId",
                "Type": "Int32"
            },
            {
                "Name": "moId",
                "Type": "Int32"
            },
            {
                "Name": "ubId",
                "Type": "Int32"
            },
            {
                "Name": "dokType",
                "Type": "String"
            },
            {
                "Name": "dokFormat",
                "Type": "String"
            },
            {
                "Name": "folderName",
                "Type": "String"
            },
            {
                "Name": "readOnly",
                "Type": "Boolean"
            },
            {
                "Name": "derivedFromVariant",
                "Type": "String"
            },
            {
                "Name": "operation",
                "Type": "String"
            }
        ]
    }
}, {
    "Description": "Check case utfall",
    "Name": "CheckSAUtfall",
    "Parameters": {
        "Parameter": [
            {
                "Name": "caseId",
                "Type": "Int32"
            }
        ]
    }
}, {
    "Description": "Function that clear usercache when user access is changed",
    "Name": "ClearUserCache",
    "Parameters": null
}, {
    "Description": "Converts documents",
    "Name": "ConvertDocuments",
    "Parameters": {
        "Parameter": [
            {
                "Name": "objectId",
                "Type": "Int32"
            },
            {
                "Name": "objectType",
                "Type": "Int32"
            },
            {
                "Name": "checkInDocuments",
                "Type": "Boolean"
            },
            {
                "Name": "replacementMainDocumentFile",
                "Type": "String"
            },
            {
                "Name": "waitForCompletionDelay",
                "Type": "Int32"
            },
            {
                "Name": "waitForCompletionRetryCount",
                "Type": "Int32"
            }
        ]
    }
}, {
    "Description": "Convert file to pdf",
    "Name": "ConvertFileToPdf",
    "Parameters": {
        "Parameter": [
            {
                "Name": "fileName",
                "Type": "String"
            }
        ]
    }
}, {
    "Description": "Kopierer avsmot til sakspart",
    "Name": "ConvertToPdf",
    "Parameters": {
        "Parameter": [
            {
                "Name": "documentDescriptionId",
                "Type": "Int32"
            },
            {
                "Name": "version",
                "Type": "Int32"
            },
            {
                "Name": "variant",
                "Type": "String"
            },
            {
                "Name": "linkToRegistryEntry",
                "Type": "Int32"
            },
            {
                "Name": "checkInDocument",
                "Type": "Boolean"
            }
        ]
    }
}, {
    "Description": "Kopierer avsmot til sakspart",
    "Name": "CopyAMtoAK",
    "Parameters": {
        "Parameter": [
            {
                "Name": "adresseId",
                "Type": "String"
            },
            {
                "Name": "avsmotId",
                "Type": "String"
            }
        ]
    }
}, {
    "Description": "Kopierer avsmot til sakspart",
    "Name": "CopyAMtoSPAK",
    "Parameters": {
        "Parameter": [
            {
                "Name": "avsmotId",
                "Type": "Int32"
            },
            {
                "Name": "sakspart",
                "Type": "Boolean"
            },
            {
                "Name": "rolletype",
                "Type": "String"
            }
        ]
    }
}, {
    "Description": "Copy a case",
    "Name": "CopyCase",
    "Parameters": {
        "Parameter": [
            {
                "Name": "CaseId",
                "Type": "Int32"
            }
        ]
    }
}, {
    "Description": "Copys the general TGgroup",
    "Name": "CopyGeneralTgGruppe",
    "Parameters": {
        "Parameter": [
            {
                "Name": "caseId",
                "Type": "Int32"
            },
            {
                "Name": "accessGroup",
                "Type": "String"
            }
        ]
    }
}, {
    "Description": "Copy Gnr to construction case",
    "Name": "CopyGnrToBS",
    "Parameters": {
        "Parameter": [
            {
                "Name": "sakId",
                "Type": "Int32"
            },
            {
                "Name": "ordningsverdi",
                "Type": "String"
            }
        ]
    }
}, {
    "Description": "CopyJournalpostHandler",
    "Name": "CopyJournalpostHandler",
    "Parameters": {
        "Parameter": [
            {
                "Name": "JournalpostId",
                "Type": "Int32"
            }
        ]
    }
}, {
    "Description": "Copy a registry entry to a specific case with or without documents. Returns the new registry entry identifier.",
    "Name": "CopyRegistryEntryHandler",
    "Parameters": {
        "Parameter": [
            {
                "Name": "SourceRegistryEntryId",
                "Type": "Int32"
            },
            {
                "Name": "TargetCaseId",
                "Type": "Int32"
            },
            {
                "Name": "IncludeDocuments",
                "Type": "Boolean"
            }
        ]
    }
}, {
    "Description": "Creates a new server document storage.",
    "Name": "CreateServerStorage",
    "Parameters": null
}, {
    "Description": "Sletter aktiv dokversjon",
    "Name": "DeleteActiveDoc",
    "Parameters": {
        "Parameter": [
            {
                "Name": "jpId",
                "Type": "Int32"
            },
            {
                "Name": "dokId",
                "Type": "Int32"
            },
            {
                "Name": "lfKode",
                "Type": "String"
            },
            {
                "Name": "useFileType",
                "Type": "Boolean"
            }
        ]
    }
}, {
    "Description": "Sletter en eller flere dokbeskriv",
    "Name": "DeleteDocDescription",
    "Parameters": {
        "Parameter": [
            {
                "Name": "dokIds",
                "Type": "String"
            },
            {
                "Name": "jpIds",
                "Type": "String"
            }
        ]
    }
}, {
    "Description": "Delete document version",
    "Name": "DeleteDocVersion",
    "Parameters": {
        "Parameter": [
            {
                "Name": "documentId",
                "Type": "Int32"
            },
            {
                "Name": "version",
                "Type": "Int32"
            },
            {
                "Name": "variant",
                "Type": "String"
            }
        ]
    }
}, {
    "Description": "Deletes message",
    "Name": "DeleteMessage",
    "Parameters": {
        "Parameter": [
            {
                "Name": "providerId",
                "Type": "String"
            },
            {
                "Name": "messageId",
                "Type": "String"
            }
        ]
    }
}, {
    "Description": "Kopierer avsmot til sakspart",
    "Name": "DeleteParentActivity",
    "Parameters": {
        "Parameter": [
            {
                "Name": "taskId",
                "Type": "Int32"
            }
        ]
    }
}, {
    "Description": "Distributes a Registry Entry",
    "Name": "DistributeV3En",
    "Parameters": {
        "Parameter": [
            {
                "Name": "registryEntryId",
                "Type": "Int32"
            },
            {
                "Name": "administrativeUnitId",
                "Type": "Int32"
            },
            {
                "Name": "userNameId",
                "Type": "Int32"
            },
            {
                "Name": "registryManagementUnitId",
                "Type": "String"
            },
            {
                "Name": "sendEmail",
                "Type": "Boolean"
            },
            {
                "Name": "remark",
                "Type": "String"
            },
            {
                "Name": "newRecipients",
                "Type": "String"
            }
        ]
    }
}, {
    "Description": "Reserves a document.",
    "Name": "DocReservation",
    "Parameters": {
        "Parameter": [
            {
                "Name": "RegistryEntryId",
                "Type": "Int32"
            },
            {
                "Name": "DocumentId",
                "Type": "Int32"
            },
            {
                "Name": "VersionId",
                "Type": "Int32"
            },
            {
                "Name": "Variant",
                "Type": "String"
            }
        ]
    }
}, {
    "Description": "Mark Activity as done",
    "Name": "EditGacUtf",
    "Parameters": {
        "Parameter": [
            {
                "Name": "Id",
                "Type": "Int32"
            },
            {
                "Name": "ObjectType",
                "Type": "Int32"
            },
            {
                "Name": "TaskTypeId",
                "Type": "String"
            }
        ]
    }
}, {
    "Description": "Set the value of DokVersjon's SjekketUt",
    "Name": "EnforceCheckOutDocuments",
    "Parameters": {
        "Parameter": [
            {
                "Name": "dokIds",
                "Type": "String"
            }
        ]
    }
}, {
    "Description": "Ferdigstiller det angitte dokumentet.",
    "Name": "FerdigstillDokument",
    "Parameters": {
        "Parameter": [
            {
                "Name": "journalpostId",
                "Type": "Int32"
            },
            {
                "Name": "dokumentId",
                "Type": "Int32"
            }
        ]
    }
}, {
    "Description": "Flag message as read",
    "Name": "FlagMessageRead",
    "Parameters": {
        "Parameter": [
            {
                "Name": "reciverRecipiantId",
                "Type": "Int32"
            },
            {
                "Name": "messageRead",
                "Type": "Boolean"
            }
        ]
    }
}, {
    "Description": "Flytter en journalpost fra en sak til en annen",
    "Name": "FlyttJournalpost",
    "Parameters": {
        "Parameter": [
            {
                "Name": "journalpostId",
                "Type": "String"
            },
            {
                "Name": "fraSakId",
                "Type": "Int64"
            },
            {
                "Name": "tilSakId",
                "Type": "Int64"
            }
        ]
    }
}, {
    "Description": "Fordeler en journalpost",
    "Name": "FordelJournalpost",
    "Parameters": {
        "Parameter": [
            {
                "Name": "sakId",
                "Type": "Int32"
            },
            {
                "Name": "journalpostId",
                "Type": "Int32"
            },
            {
                "Name": "administrativInndelingId",
                "Type": "Int32"
            },
            {
                "Name": "saksbehandlerId",
                "Type": "Int32"
            },
            {
                "Name": "merknad",
                "Type": "String"
            },
            {
                "Name": "sendEpost",
                "Type": "Boolean"
            }
        ]
    }
}, {
    "Description": "Generates a OneNote note of Document.",
    "Name": "GenerateDocToOneNote",
    "Parameters": {
        "Parameter": [
            {
                "Name": "meetingId",
                "Type": "Int32"
            },
            {
                "Name": "committeeId",
                "Type": "Int32"
            },
            {
                "Name": "documentType",
                "Type": "String"
            },
            {
                "Name": "IsPublic",
                "Type": "Boolean"
            },
            {
                "Name": "usePdfFormat",
                "Type": "Boolean"
            },
            {
                "Name": "refData",
                "Type": "Object"
            }
        ]
    }
}, {
    "Description": "Get status of generating OneNote Documents.",
    "Name": "GenerateDocToOneNoteStatus",
    "Parameters": {
        "Parameter": [
            {
                "Name": "relativePath",
                "Type": "String"
            }
        ]
    }
}, {
    "Description": "Generate meeting document(s).",
    "Name": "GenerateMeetingDocuments",
    "Parameters": {
        "Parameter": [
            {
                "Name": "meetingId",
                "Type": "Int32"
            },
            {
                "Name": "committeeId",
                "Type": "Int32"
            },
            {
                "Name": "documentType",
                "Type": "String"
            },
            {
                "Name": "isPublic",
                "Type": "Boolean"
            }
        ]
    }
}, {
    "Description": "Generate meeting document(s) and queue for merge",
    "Name": "GenerateMeetingDocumentsAndQueueForMerge",
    "Parameters": {
        "Parameter": [
            {
                "Name": "meetingId",
                "Type": "Int32"
            },
            {
                "Name": "committeeId",
                "Type": "Int32"
            },
            {
                "Name": "documentType",
                "Type": "String"
            },
            {
                "Name": "isPublic",
                "Type": "Boolean"
            },
            {
                "Name": "usePageNumbering",
                "Type": "Boolean"
            }
        ]
    }
}, {
    "Description": "Generate report",
    "Name": "GenerateReport",
    "Parameters": {
        "Parameter": [
            {
                "Name": "reportId",
                "Type": "Int32"
            },
            {
                "Name": "format",
                "Type": "String"
            },
            {
                "Name": "criteria",
                "Type": "String"
            }
        ]
    }
}, {
    "Description": "Get all whitelisted config settings.",
    "Name": "GetAllConfigSettings",
    "Parameters": null
}, {
    "Description": "GetAllSearcherNames",
    "Name": "GetAllSearcherNames",
    "Parameters": null
}, {
    "Description": "Get attachment",
    "Name": "GetAttachment",
    "Parameters": {
        "Parameter": [
            {
                "Name": "providerId",
                "Type": "String"
            },
            {
                "Name": "messageId",
                "Type": "String"
            }
        ]
    }
}, {
    "Description": "Gets the senders emailadresses",
    "Name": "GetAvsenderEpostAdresse",
    "Parameters": null
}, {
    "Description": "Gets the senders emailadresses from template",
    "Name": "GetAvsenderEpostAdresseFromTemplate",
    "Parameters": {
        "Parameter": [
            {
                "Name": "userNameId",
                "Type": "Int32"
            },
            {
                "Name": "administrativeUnitId",
                "Type": "Int32"
            },
            {
                "Name": "emailTemplate",
                "Type": "String"
            }
        ]
    }
}, {
    "Description": "Gets the case draft ",
    "Name": "GetCaseDraft",
    "Parameters": {
        "Parameter": [
            {
                "Name": "ubId",
                "Type": "Int32"
            }
        ]
    }
}, {
    "Description": "Returnerer true dersom klasseringer inneholder kommunenr. Hvis ikke returneres false",
    "Name": "GetClassificationContainsMunicipalityNumber",
    "Parameters": null
}, {
    "Description": "Get a whitelisted config setting.",
    "Name": "GetConfigSetting",
    "Parameters": {
        "Parameter": [
            {
                "Name": "SettingKey",
                "Type": "String"
            }
        ]
    }
}, {
    "Description": "Get all existing countries from Land table",
    "Name": "GetCountries",
    "Parameters": null
}, {
    "Description": "Get a criteriacollection (as string) for a given predefSearchId .",
    "Name": "GetCriteriaCollectionForPredefSearchId",
    "Parameters": {
        "Parameter": [
            {
                "Name": "predefSearchId",
                "Type": "Int32"
            },
            {
                "Name": "isInputMode",
                "Type": "Boolean"
            }
        ]
    }
}, {
    "Description": "Get information about a DMB DocumentObject.",
    "Name": "GetDmbDocumentObject",
    "Parameters": {
        "Parameter": [
            {
                "Name": "ubId",
                "Type": "Int32"
            },
            {
                "Name": "docType",
                "Type": "String"
            }
        ]
    }
}, {
    "Description": "Get data related to a given document",
    "Name": "GetDocData",
    "Parameters": {
        "Parameter": [
            {
                "Name": "docId",
                "Type": "Int32"
            },
            {
                "Name": "version",
                "Type": "Int32"
            },
            {
                "Name": "variant",
                "Type": "String"
            },
            {
                "Name": "jpId",
                "Type": "Int32"
            },
            {
                "Name": "mdId",
                "Type": "Int32"
            },
            {
                "Name": "moId",
                "Type": "Int32"
            },
            {
                "Name": "ubId",
                "Type": "Int32"
            },
            {
                "Name": "dokType",
                "Type": "String"
            }
        ]
    }
}, {
    "Description": "Creates a new server document storage.",
    "Name": "GetDocMergeInfo",
    "Parameters": {
        "Parameter": [
            {
                "Name": "DocumentId",
                "Type": "Int32"
            },
            {
                "Name": "RegistryEntryId",
                "Type": "Int32"
            },
            {
                "Name": "CaseId",
                "Type": "Int32"
            },
            {
                "Name": "BookMarks",
                "Type": "String"
            },
            {
                "Name": "FileName",
                "Type": "String"
            },
            {
                "Name": "Template",
                "Type": "String"
            },
            {
                "Name": "AddInTemplate",
                "Type": "String"
            },
            {
                "Name": "AutoText",
                "Type": "String"
            },
            {
                "Name": "MacroName",
                "Type": "String"
            },
            {
                "Name": "DataFile",
                "Type": "String"
            },
            {
                "Name": "SenderRecipientIdFilter",
                "Type": "Int32"
            }
        ]
    }
}, {
    "Description": "Gets a documents template",
    "Name": "GetDocTemplate",
    "Parameters": {
        "Parameter": [
            {
                "Name": "TemplateId",
                "Type": "Int32"
            },
            {
                "Name": "RegistryEntryId",
                "Type": "Int32"
            },
            {
                "Name": "DbField",
                "Type": "String"
            }
        ]
    }
}, {
    "Description": "Returns document templates as XML",
    "Name": "GetDocumentTemplatesAsXml",
    "Parameters": {
        "Parameter": [
            {
                "Name": "jpId",
                "Type": "Int32"
            },
            {
                "Name": "dokId",
                "Type": "Int32"
            },
            {
                "Name": "dokType",
                "Type": "String"
            }
        ]
    }
}, {
    "Description": "Gets the formated database name for current setting/session.",
    "Name": "GetEphorteDBName",
    "Parameters": null
}, {
    "Description": "GetExtendedFeatures",
    "Name": "GetExtendedFeatures",
    "Parameters": {
        "Parameter": [
            {
                "Name": "text",
                "Type": "String"
            }
        ]
    }
}, {
    "Description": "Get previous recommandation",
    "Name": "GetFileFromPreviuosRecommandationHandler",
    "Parameters": {
        "Parameter": [
            {
                "Name": "ubId",
                "Type": "Int32"
            }
        ]
    }
}, {
    "Description": "Gets a ",
    "Name": "GetFileInfo",
    "Parameters": {
        "Parameter": [
            {
                "Name": "FileName",
                "Type": "String"
            }
        ]
    }
}, {
    "Description": "GetFrases",
    "Name": "GetFrases",
    "Parameters": null
}, {
    "Description": "Returns licensing information of a given module related to the customer id of the logged in user",
    "Name": "GetLicenses",
    "Parameters": {
        "Parameter": [
            {
                "Name": "moduleNames",
                "Type": "String"
            }
        ]
    }
}, {
    "Description": "Get information about a meeting DocumentObject.",
    "Name": "GetMeetingDocumentObject",
    "Parameters": {
        "Parameter": [
            {
                "Name": "moId",
                "Type": "Int32"
            },
            {
                "Name": "dokType",
                "Type": "String"
            },
            {
                "Name": "status",
                "Type": "String"
            }
        ]
    }
}, {
    "Description": "Build and send EDU request",
    "Name": "GetNewDocVersionHandler",
    "Parameters": {
        "Parameter": [
            {
                "Name": "docId",
                "Type": "Int32"
            },
            {
                "Name": "version",
                "Type": "Int32"
            },
            {
                "Name": "variant",
                "Type": "String"
            },
            {
                "Name": "jpId",
                "Type": "Int32"
            },
            {
                "Name": "operation",
                "Type": "String"
            },
            {
                "Name": "fullWorkFolderName",
                "Type": "String"
            },
            {
                "Name": "docFormat",
                "Type": "String"
            },
            {
                "Name": "derivedFromVariant",
                "Type": "String"
            },
            {
                "Name": "fileName",
                "Type": "String"
            },
            {
                "Name": "avsmotFileName",
                "Type": "String"
            },
            {
                "Name": "fromApp",
                "Type": "Boolean"
            }
        ]
    }
}, {
    "Description": "Get notification details",
    "Name": "GetNotificationDetailsHandler",
    "Parameters": {
        "Parameter": [
            {
                "Name": "NotificationId",
                "Type": "Int32"
            }
        ]
    }
}, {
    "Description": "Get notifications",
    "Name": "GetNotificationsHandler",
    "Parameters": null
}, {
    "Description": "Finner antall uleste forekomster for et predefinert søk.",
    "Name": "GetNumberOfUnreadPredefSoekHandler",
    "Parameters": {
        "Parameter": [
            {
                "Name": "bpsId",
                "Type": "Int32"
            }
        ]
    }
}, {
    "Description": "Gets objects claims",
    "Name": "GetObjectClaims",
    "Parameters": {
        "Parameter": [
            {
                "Name": "objects",
                "Type": "String"
            }
        ]
    }
}, {
    "Description": "Returns a ;-seperated list of the supplied e-mail adresses and the associated PERROLLE.ID of the standard role for the user. Ex.: 'foo@bar.com:1;bar@foo.com:2'",
    "Name": "GetPerRolleIdByEMail",
    "Parameters": {
        "Parameter": [
            {
                "Name": "emailadresse",
                "Type": "String"
            }
        ]
    }
}, {
    "Description": "Returnes predefined query criteria in a format that can be used with OMS V3.",
    "Name": "GetPredefinedQueryCriteria",
    "Parameters": {
        "Parameter": [
            {
                "Name": "Id",
                "Type": "Int32"
            },
            {
                "Name": "Format",
                "Type": "String"
            }
        ]
    }
}, {
    "Description": "Get SolrSearch site url",
    "Name": "GetSolrSearchSiteUrl",
    "Parameters": null
}, {
    "Description": "Gets all document templates.",
    "Name": "GetTemplateType",
    "Parameters": null
}, {
    "Description": "Generate meeting document(s).",
    "Name": "GetUtvMergeInfo",
    "Parameters": {
        "Parameter": [
            {
                "Name": "meetingId",
                "Type": "Int32"
            },
            {
                "Name": "DMBHandlingId",
                "Type": "Int32"
            },
            {
                "Name": "documentType",
                "Type": "String"
            },
            {
                "Name": "fileName",
                "Type": "String"
            },
            {
                "Name": "template",
                "Type": "String"
            },
            {
                "Name": "addInTemplate",
                "Type": "String"
            },
            {
                "Name": "autoText",
                "Type": "String"
            },
            {
                "Name": "macroName",
                "Type": "String"
            }
        ]
    }
}, {
    "Description": "Returns nCore application AssemblyFileVersion string.",
    "Name": "GetVersionString",
    "Parameters": null
}, {
    "Description": "Returns the filename of a registered Xslt schema from a supplied name key. This function is typically used when doing an XmlImport",
    "Name": "GetXsltSchemaByName",
    "Parameters": {
        "Parameter": [
            {
                "Name": "SchemaName",
                "Type": "String"
            }
        ]
    }
}, {
    "Description": "Godkjenner det angitte dokumentet.",
    "Name": "GodkjennDokument",
    "Parameters": {
        "Parameter": [
            {
                "Name": "journalpostId",
                "Type": "Int32"
            },
            {
                "Name": "dokumentId",
                "Type": "Int32"
            },
            {
                "Name": "godkjennesAvId",
                "Type": "String"
            }
        ]
    }
}, {
    "Description": "Godkjenner den angitte journalposten.",
    "Name": "GodkjennJournalpost",
    "Parameters": {
        "Parameter": [
            {
                "Name": "sakId",
                "Type": "Int32"
            },
            {
                "Name": "journalpostId",
                "Type": "Int32"
            },
            {
                "Name": "godkjent",
                "Type": "Boolean"
            },
            {
                "Name": "merknad",
                "Type": "String"
            },
            {
                "Name": "sendEpost",
                "Type": "Boolean"
            }
        ]
    }
}, {
    "Description": "Godkjenner den angitte journalposten. Versjon 2 aksepterer også 'godkjentAv' som parameter",
    "Name": "GodkjennJournalpostV2",
    "Parameters": {
        "Parameter": [
            {
                "Name": "sakId",
                "Type": "Int32"
            },
            {
                "Name": "journalpostId",
                "Type": "Int32"
            },
            {
                "Name": "godkjent",
                "Type": "Boolean"
            },
            {
                "Name": "merknad",
                "Type": "String"
            },
            {
                "Name": "sendEpost",
                "Type": "Boolean"
            },
            {
                "Name": "godkjentAv",
                "Type": "Int32"
            }
        ]
    }
}, {
    "Description": "Checks if a registryentrys main document, or a certain document,  (Dokbeskriv) has any attached document versions (Dokversjon).",
    "Name": "HasDokbeskrivVersions",
    "Parameters": {
        "Parameter": [
            {
                "Name": "journalpostId",
                "Type": "Int32"
            },
            {
                "Name": "dokumentId",
                "Type": "Int32"
            }
        ]
    }
}, {
    "Description": "Build and send HasSdpDigitalAddress request",
    "Name": "HasSdpDigitalAddress",
    "Parameters": {
        "Parameter": [
            {
                "Name": "senderRecipientEncryptedSsn",
                "Type": "String"
            }
        ]
    }
}, {
    "Description": "Henter aktivitetsmaler fra ePhorte.",
    "Name": "HentAktivitetsmaler",
    "Parameters": {
        "Parameter": [
            {
                "Name": "objectTypeId",
                "Type": "Int32"
            }
        ]
    }
}, {
    "Description": "Retunerer id for aktiv rolle.",
    "Name": "HentAktivRolle",
    "Parameters": null
}, {
    "Description": "Retunerer default arkivdel for gjeldende rolle.",
    "Name": "HentDefaultArkivDel",
    "Parameters": null
}, {
    "Description": "Henter dokumentmaler fra ePhorte.",
    "Name": "HentDokumentmaler",
    "Parameters": {
        "Parameter": [
            {
                "Name": "journalpostId",
                "Type": "Int32"
            },
            {
                "Name": "dokumentId",
                "Type": "Int32"
            },
            {
                "Name": "dokumentTyper",
                "Type": "String"
            }
        ]
    }
}, {
    "Description": "Henter dokumentmaltyper fra ePhorte.",
    "Name": "HentDokumentmalTyper",
    "Parameters": null
}, {
    "Description": "Genererer og henter ny verdi for angitt id (nøkkelfelt)",
    "Name": "HentNyId",
    "Parameters": {
        "Parameter": [
            {
                "Name": "IdNavn",
                "Type": "String"
            }
        ]
    }
}, {
    "Description": "Hent protokollutdrag",
    "Name": "HentProtokollUtdragHandler",
    "Parameters": {
        "Parameter": [
            {
                "Name": "jpId",
                "Type": "Int32"
            },
            {
                "Name": "ubId",
                "Type": "Int32"
            },
            {
                "Name": "moId",
                "Type": "Int32"
            }
        ]
    }
}, {
    "Description": "Gets a string represent a user roles",
    "Name": "HentRolleHandler",
    "Parameters": {
        "Parameter": [
            {
                "Name": "peId",
                "Type": "Int64"
            }
        ]
    }
}, {
    "Description": "Hent siste vedtak",
    "Name": "HentSisteVedtakHandler",
    "Parameters": {
        "Parameter": [
            {
                "Name": "jpId",
                "Type": "Int32"
            }
        ]
    }
}, {
    "Description": "InternalChangeUtvalgsbehandlingStatusHandler",
    "Name": "InternalChangeUtvalgsbehandlingStatusHandler",
    "Parameters": {
        "Parameter": [
            {
                "Name": "MoId",
                "Type": "Int32"
            },
            {
                "Name": "UbId",
                "Type": "String"
            },
            {
                "Name": "Status",
                "Type": "String"
            }
        ]
    }
}, {
    "Description": "InternalDeleteFrammoteHandler",
    "Name": "InternalDeleteFrammoteHandler",
    "Parameters": {
        "Parameter": [
            {
                "Name": "MoId",
                "Type": "Int32"
            },
            {
                "Name": "Alle",
                "Type": "Boolean"
            },
            {
                "Name": "PnId",
                "Type": "Int32"
            }
        ]
    }
}, {
    "Description": "DisposalDelete",
    "Name": "InternalDisposalDelete",
    "Parameters": {
        "Parameter": [
            {
                "Name": "disposalDate",
                "Type": "DateTime"
            },
            {
                "Name": "disposedBy",
                "Type": "Int32"
            },
            {
                "Name": "documentDescriptionId",
                "Type": "String"
            }
        ]
    }
}, {
    "Description": "InternalDoFlytting",
    "Name": "InternalDoFlytting",
    "Parameters": {
        "Parameter": [
            {
                "Name": "XmlSourceFile",
                "Type": "String"
            },
            {
                "Name": "DefaultAdmInndel",
                "Type": "Int32"
            }
        ]
    }
}, {
    "Description": "InternalDoSperring",
    "Name": "InternalDoSperring",
    "Parameters": {
        "Parameter": [
            {
                "Name": "XmlSourceFile",
                "Type": "String"
            }
        ]
    }
}, {
    "Description": "InternalExecuteCustomerFunctionsMethodHandler",
    "Name": "InternalExecuteCustomerFunctionsMethodHandler",
    "Parameters": {
        "Parameter": [
            {
                "Name": "FunctionName",
                "Type": "String"
            },
            {
                "Name": "Id",
                "Type": "Int32"
            },
            {
                "Name": "Parameters",
                "Type": "String"
            }
        ]
    }
}, {
    "Description": "InternalGetCustomFieldsHandler",
    "Name": "InternalGetCustomFieldsHandler",
    "Parameters": {
        "Parameter": [
            {
                "Name": "database",
                "Type": "String"
            }
        ]
    }
}, {
    "Description": "InternalGetCustomLabelInfoHandler",
    "Name": "InternalGetCustomLabelInfoHandler",
    "Parameters": {
        "Parameter": [
            {
                "Name": "database",
                "Type": "String"
            }
        ]
    }
}, {
    "Description": "Gets a property name of a EIS OMS DataObject based upon the Ephorte column name",
    "Name": "InternalGetDataObjectPropertyNameFromEphorteFieldName",
    "Parameters": {
        "Parameter": [
            {
                "Name": "TypeToMapp",
                "Type": "String"
            },
            {
                "Name": "EphorteFieldName",
                "Type": "String"
            }
        ]
    }
}, {
    "Description": "InternalGetPrincipalInfo",
    "Name": "InternalGetPrincipalInfo",
    "Parameters": null
}, {
    "Description": "InternalGetRolle",
    "Name": "InternalGetRolle",
    "Parameters": null
}, {
    "Description": "InternalGetUsers",
    "Name": "InternalGetUsers",
    "Parameters": null
}, {
    "Description": "InternalHasWriteAccessToJournalpost",
    "Name": "InternalHasWriteAccessToJournalpost",
    "Parameters": {
        "Parameter": [
            {
                "Name": "JpId",
                "Type": "Int32"
            },
            {
                "Name": "DokId",
                "Type": "Int32"
            }
        ]
    }
}, {
    "Description": "InternalImport",
    "Name": "InternalImport",
    "Parameters": {
        "Parameter": [
            {
                "Name": "XmlReaderString",
                "Type": "String"
            },
            {
                "Name": "DefaultAdmIndel",
                "Type": "Int32"
            }
        ]
    }
}, {
    "Description": "InternalImport2",
    "Name": "InternalImport2",
    "Parameters": {
        "Parameter": [
            {
                "Name": "XmlSourceFile",
                "Type": "String"
            },
            {
                "Name": "XslTransformer",
                "Type": "String"
            },
            {
                "Name": "DefaultAdmIndel",
                "Type": "Int32"
            }
        ]
    }
}, {
    "Description": "InternalImportByXmlImportHandler",
    "Name": "InternalImportByXmlImportHandler",
    "Parameters": {
        "Parameter": [
            {
                "Name": "Xml",
                "Type": "String"
            },
            {
                "Name": "DefaultAdmInndel",
                "Type": "Int32"
            }
        ]
    }
}, {
    "Description": "InternalImportKatalogInfoHandler",
    "Name": "InternalImportKatalogInfoHandler",
    "Parameters": {
        "Parameter": [
            {
                "Name": "XMLSource",
                "Type": "String"
            },
            {
                "Name": "XSLTransformer",
                "Type": "String"
            }
        ]
    }
}, {
    "Description": "InternalImportPersonData",
    "Name": "InternalImportPersonData",
    "Parameters": {
        "Parameter": [
            {
                "Name": "XmlSource",
                "Type": "String"
            },
            {
                "Name": "XslTransformer",
                "Type": "String"
            }
        ]
    }
}, {
    "Description": "InternalImportPersonData2",
    "Name": "InternalImportPersonData2",
    "Parameters": {
        "Parameter": [
            {
                "Name": "XmlReaderString",
                "Type": "String"
            },
            {
                "Name": "AlertException",
                "Type": "Boolean"
            },
            {
                "Name": "AlertAdd",
                "Type": "Boolean"
            },
            {
                "Name": "AlertUpdate",
                "Type": "Boolean"
            },
            {
                "Name": "AlertDelete",
                "Type": "Boolean"
            },
            {
                "Name": "AlertEmailRecipients",
                "Type": "String"
            },
            {
                "Name": "AlertEmailSender",
                "Type": "String"
            }
        ]
    }
}, {
    "Description": "InternalImportPersonDataHandler",
    "Name": "InternalImportPersonDataHandler",
    "Parameters": {
        "Parameter": [
            {
                "Name": "XMLSource",
                "Type": "String"
            },
            {
                "Name": "XSLTransformer",
                "Type": "String"
            }
        ]
    }
}, {
    "Description": "Is logged in user 'ArkivLeder'",
    "Name": "InternalIsArkivLederHandler",
    "Parameters": null
}, {
    "Description": "Is logged in user 'Arkivpersonell'",
    "Name": "InternalIsArkivPersonellHandler",
    "Parameters": null
}, {
    "Description": "InternalLockProtokollHandler",
    "Name": "InternalLockProtokollHandler",
    "Parameters": {
        "Parameter": [
            {
                "Name": "MoId",
                "Type": "Int32"
            }
        ]
    }
}, {
    "Description": "InternalLogOff",
    "Name": "InternalLogOff",
    "Parameters": null
}, {
    "Description": "Merges the comma-separated list of registry entries into a single pdf and saves it with the passed in filename in the Pdf document processing directory.",
    "Name": "InternalMergeRegistryEntriesHandler",
    "Parameters": {
        "Parameter": [
            {
                "Name": "RegistryEntriesToMerge",
                "Type": "String"
            },
            {
                "Name": "MergedFileName",
                "Type": "String"
            }
        ]
    }
}, {
    "Description": "InternalMoveUtvalgsbehandlingHandler",
    "Name": "InternalMoveUtvalgsbehandlingHandler",
    "Parameters": {
        "Parameter": [
            {
                "Name": "MoId",
                "Type": "Int32"
            },
            {
                "Name": "UbId",
                "Type": "Int32"
            },
            {
                "Name": "Direction",
                "Type": "String"
            }
        ]
    }
}, {
    "Description": "InternalNewFrammoteHandler",
    "Name": "InternalNewFrammoteHandler",
    "Parameters": {
        "Parameter": [
            {
                "Name": "UtId",
                "Type": "Int32"
            },
            {
                "Name": "MoId",
                "Type": "Int32"
            },
            {
                "Name": "Alle",
                "Type": "Boolean"
            },
            {
                "Name": "PdId",
                "Type": "Int32"
            },
            {
                "Name": "VaraPnId",
                "Type": "Int32"
            }
        ]
    }
}, {
    "Description": "InternalNewFrammotePersVaraHandler",
    "Name": "InternalNewFrammotePersVaraHandler",
    "Parameters": {
        "Parameter": [
            {
                "Name": "UtId",
                "Type": "Int32"
            },
            {
                "Name": "MoId",
                "Type": "Int32"
            },
            {
                "Name": "Alle",
                "Type": "Boolean"
            },
            {
                "Name": "VaraPnId",
                "Type": "Int32"
            }
        ]
    }
}, {
    "Description": "InternalNumbSakskartHandler",
    "Name": "InternalNumbSakskartHandler",
    "Parameters": {
        "Parameter": [
            {
                "Name": "MoId",
                "Type": "Int32"
            },
            {
                "Name": "UtvId",
                "Type": "Int32"
            },
            {
                "Name": "ForrigeMote",
                "Type": "Boolean"
            }
        ]
    }
}, {
    "Description": "InternalSendJpMessageHandler",
    "Name": "InternalSendJpMessageHandler",
    "Parameters": {
        "Parameter": [
            {
                "Name": "JournalpostId",
                "Type": "Int32"
            }
        ]
    }
}, {
    "Description": "InternalSessionReplaceParametersHandler",
    "Name": "InternalSessionReplaceParametersHandler",
    "Parameters": {
        "Parameter": [
            {
                "Name": "Query",
                "Type": "String"
            }
        ]
    }
}, {
    "Description": "Sets current database",
    "Name": "InternalSetCurrentDb",
    "Parameters": {
        "Parameter": [
            {
                "Name": "database",
                "Type": "String"
            },
            {
                "Name": "defaultValue",
                "Type": "String"
            }
        ]
    }
}, {
    "Description": "Sets VE_HARFLEREDOK_G value of the given document version",
    "Name": "InternalSetHarFlereDocOnDocVersion",
    "Parameters": {
        "Parameter": [
            {
                "Name": "dokId",
                "Type": "Int32"
            },
            {
                "Name": "versjon",
                "Type": "Int32"
            },
            {
                "Name": "variant",
                "Type": "String"
            },
            {
                "Name": "dokType",
                "Type": "String"
            },
            {
                "Name": "linkId1",
                "Type": "Int32"
            },
            {
                "Name": "harFlereDok",
                "Type": "Int32"
            }
        ]
    }
}, {
    "Description": "InternalSetSortOrderAdvancedHandler",
    "Name": "InternalSetSortOrderAdvancedHandler",
    "Parameters": {
        "Parameter": [
            {
                "Name": "DbTable",
                "Type": "String"
            },
            {
                "Name": "SortField",
                "Type": "String"
            },
            {
                "Name": "IdField",
                "Type": "String"
            },
            {
                "Name": "Increase",
                "Type": "Boolean"
            },
            {
                "Name": "SortFieldValueLow",
                "Type": "Int32"
            },
            {
                "Name": "SortFieldValueHigh",
                "Type": "Int32"
            },
            {
                "Name": "NewIdFieldValue",
                "Type": "Int32"
            },
            {
                "Name": "ExtraCriteria",
                "Type": "String"
            },
            {
                "Name": "OtherIdFieldValues",
                "Type": "String"
            }
        ]
    }
}, {
    "Description": "InternalSetSortOrderHandler",
    "Name": "InternalSetSortOrderHandler",
    "Parameters": {
        "Parameter": [
            {
                "Name": "DbTable",
                "Type": "String"
            },
            {
                "Name": "SortField",
                "Type": "String"
            },
            {
                "Name": "IdField",
                "Type": "String"
            },
            {
                "Name": "SortFieldValue",
                "Type": "Int32"
            },
            {
                "Name": "NewIdFieldValue",
                "Type": "Int32"
            },
            {
                "Name": "ExtraCriteria",
                "Type": "String"
            }
        ]
    }
}, {
    "Description": "InternalTraceSmtp",
    "Name": "InternalTraceSmtp",
    "Parameters": {
        "Parameter": [
            {
                "Name": "ServerAddress",
                "Type": "String"
            },
            {
                "Name": "FromAddress",
                "Type": "String"
            },
            {
                "Name": "ToAddress",
                "Type": "String"
            },
            {
                "Name": "CcAddress",
                "Type": "String"
            },
            {
                "Name": "HtmlBody",
                "Type": "String"
            },
            {
                "Name": "TextBody",
                "Type": "String"
            },
            {
                "Name": "Subject",
                "Type": "String"
            },
            {
                "Name": "Encoding",
                "Type": "String"
            },
            {
                "Name": "EnableSsl",
                "Type": "Boolean"
            }
        ]
    }
}, {
    "Description": "InternalUpdateByXmlHandler",
    "Name": "InternalUpdateByXmlHandler",
    "Parameters": {
        "Parameter": [
            {
                "Name": "XMLSource",
                "Type": "String"
            },
            {
                "Name": "XSLTransformer",
                "Type": "String"
            },
            {
                "Name": "DeleteSourceFile",
                "Type": "Boolean"
            }
        ]
    }
}, {
    "Description": "InternalUpdateByXmlHandlerNoark4Ws handles auto import from Noark4WWS",
    "Name": "InternalUpdateByXmlHandlerNoark4Ws",
    "Parameters": {
        "Parameter": [
            {
                "Name": "XMLSource",
                "Type": "String"
            },
            {
                "Name": "SchemaName",
                "Type": "String"
            },
            {
                "Name": "DeleteSourceFile",
                "Type": "Boolean"
            }
        ]
    }
}, {
    "Description": "InternalUserGetExtraInfo",
    "Name": "InternalUserGetExtraInfo",
    "Parameters": {
        "Parameter": [
            {
                "Name": "name",
                "Type": "String"
            }
        ]
    }
}, {
    "Description": "InternalUserIsInRole",
    "Name": "InternalUserIsInRole",
    "Parameters": {
        "Parameter": [
            {
                "Name": "role",
                "Type": "String"
            }
        ]
    }
}, {
    "Description": "InternalUserSetExtraInfo",
    "Name": "InternalUserSetExtraInfo",
    "Parameters": {
        "Parameter": [
            {
                "Name": "name",
                "Type": "String"
            },
            {
                "Name": "value",
                "Type": "String"
            }
        ]
    }
}, {
    "Description": "InternalXmlImportTransformedXmlFile",
    "Name": "InternalXmlImportTransformedXmlFile",
    "Parameters": {
        "Parameter": [
            {
                "Name": "XMLSource",
                "Type": "String"
            },
            {
                "Name": "XSLTransformer",
                "Type": "String"
            }
        ]
    }
}, {
    "Description": "IsInQueue",
    "Name": "IsInQueue",
    "Parameters": {
        "Parameter": [
            {
                "Name": "action",
                "Type": "String"
            },
            {
                "Name": "registryEntryId",
                "Type": "Int32"
            },
            {
                "Name": "jobId",
                "Type": "Int32"
            }
        ]
    }
}, {
    "Description": "Validates Digipost data",
    "Name": "IsReadyForSend",
    "Parameters": {
        "Parameter": [
            {
                "Name": "jpId",
                "Type": "Int32"
            }
        ]
    }
}, {
    "Description": "Build and send IsReservedAgainstReceivingSdpDigitally request",
    "Name": "IsReservedAgainstReceivingSdpDigitally",
    "Parameters": {
        "Parameter": [
            {
                "Name": "senderRecipientEncryptedSsn",
                "Type": "String"
            }
        ]
    }
}, {
    "Description": "Checks if an officer has a valid role within a given administrative unit or not",
    "Name": "IsValidExecutiveOfficerWithAdmUnit",
    "Parameters": {
        "Parameter": [
            {
                "Name": "admUnitId",
                "Type": "Int32"
            },
            {
                "Name": "officerNameId",
                "Type": "Int32"
            }
        ]
    }
}, {
    "Description": "Henter pålogget brukers rettigheter til et bestemt objekt.",
    "Name": "KanEndre",
    "Parameters": {
        "Parameter": [
            {
                "Name": "DataObjectType",
                "Type": "String"
            },
            {
                "Name": "PrimaryKeys",
                "Type": "String"
            }
        ]
    }
}, {
    "Description": "Henter pålogget brukers rettigheter til å opprette et bestemt objekt.",
    "Name": "KanOpprette",
    "Parameters": {
        "Parameter": [
            {
                "Name": "DataObjectType",
                "Type": "String"
            },
            {
                "Name": "PrimaryKeys",
                "Type": "String"
            }
        ]
    }
}, {
    "Description": "Henter pålogget brukers rettigheter til å slette et bestemt objekt.",
    "Name": "KanSlette",
    "Parameters": {
        "Parameter": [
            {
                "Name": "DataObjectType",
                "Type": "String"
            },
            {
                "Name": "PrimaryKeys",
                "Type": "String"
            }
        ]
    }
}, {
    "Description": "Marks a user as a main employer",
    "Name": "MarkAsMainEmployer",
    "Parameters": {
        "Parameter": [
            {
                "Name": "SenderRecipientId",
                "Type": "Int32"
            },
            {
                "Name": "RefreshRecord",
                "Type": "Boolean"
            }
        ]
    }
}, {
    "Description": "Markerer avsendermotaker som lest.",
    "Name": "MarkerAvsenderMottakerSomLest",
    "Parameters": {
        "Parameter": [
            {
                "Name": "AvsenderMottakerId",
                "Type": "Int32"
            }
        ]
    }
}, {
    "Description": "Marker en journalpost som lest.",
    "Name": "MarkerJournalpostSomLest",
    "Parameters": {
        "Parameter": [
            {
                "Name": "journalpostId",
                "Type": "Int32"
            }
        ]
    }
}, {
    "Description": "Marker en sak som lest.",
    "Name": "MarkerSakSomLest",
    "Parameters": {
        "Parameter": [
            {
                "Name": "sakId",
                "Type": "Int32"
            }
        ]
    }
}, {
    "Description": "Mark Activity as done",
    "Name": "MarkGakAsDone",
    "Parameters": {
        "Parameter": [
            {
                "Name": "activityId",
                "Type": "Int32"
            }
        ]
    }
}, {
    "Description": "Merge files",
    "Name": "MergeFiles",
    "Parameters": {
        "Parameter": [
            {
                "Name": "objectId",
                "Type": "Int32"
            },
            {
                "Name": "objectType",
                "Type": "Int32"
            },
            {
                "Name": "checkInDocuments",
                "Type": "Boolean"
            },
            {
                "Name": "replacementMainDocumentFile",
                "Type": "String"
            },
            {
                "Name": "amId",
                "Type": "Int32"
            }
        ]
    }
}, {
    "Description": "Merge files",
    "Name": "MergeRegistryEntryFiles",
    "Parameters": {
        "Parameter": [
            {
                "Name": "registryEntryId",
                "Type": "Int32"
            }
        ]
    }
}, {
    "Description": "Markerer aktivitet som fullført",
    "Name": "MerkAktivitetSomFullfoert",
    "Parameters": {
        "Parameter": [
            {
                "Name": "aktivitetId",
                "Type": "Int32"
            }
        ]
    }
}, {
    "Description": "Moves activity",
    "Name": "MoveActivity",
    "Parameters": {
        "Parameter": [
            {
                "Name": "gakId",
                "Type": "Int32"
            },
            {
                "Name": "direction",
                "Type": "String"
            }
        ]
    }
}, {
    "Description": "Moves link",
    "Name": "MoveLink",
    "Parameters": {
        "Parameter": [
            {
                "Name": "linkId",
                "Type": "Int32"
            },
            {
                "Name": "objectType",
                "Type": "Int32"
            },
            {
                "Name": "objectId",
                "Type": "Int32"
            },
            {
                "Name": "direction",
                "Type": "String"
            }
        ]
    }
}, {
    "Description": "Lage ny flyt basert på mal",
    "Name": "NewActivitiesFromTemplate",
    "Parameters": {
        "Parameter": [
            {
                "Name": "id",
                "Type": "Int32"
            },
            {
                "Name": "objektId",
                "Type": "Int32"
            },
            {
                "Name": "typeId",
                "Type": "Int32"
            },
            {
                "Name": "posisjonId",
                "Type": "Int32"
            },
            {
                "Name": "sammeNivaa",
                "Type": "Boolean"
            },
            {
                "Name": "mottakere",
                "Type": "String"
            }
        ]
    }
}, {
    "Description": "Lage ny flyt basert på mal",
    "Name": "NewActivityFromTemplate",
    "Parameters": {
        "Parameter": [
            {
                "Name": "id",
                "Type": "Int32"
            },
            {
                "Name": "objektId",
                "Type": "Int32"
            },
            {
                "Name": "typeId",
                "Type": "Int32"
            },
            {
                "Name": "posisjonId",
                "Type": "Int32"
            },
            {
                "Name": "sammeNivaa",
                "Type": "Boolean"
            }
        ]
    }
}, {
    "Description": "Creates and send a new message.",
    "Name": "NewMessage",
    "Parameters": {
        "Parameter": [
            {
                "Name": "ObjectId",
                "Type": "Int32"
            },
            {
                "Name": "ObjectType",
                "Type": "Int32"
            },
            {
                "Name": "AnswersTheRegistryEntryId",
                "Type": "String"
            },
            {
                "Name": "MeetingDocumentTypeCode",
                "Type": "String"
            },
            {
                "Name": "SendLetter",
                "Type": "Boolean"
            }
        ]
    }
}, {
    "Description": "Creates and send a new message.",
    "Name": "NewMessageFromDocVersion",
    "Parameters": {
        "Parameter": [
            {
                "Name": "ObjectId",
                "Type": "Int32"
            },
            {
                "Name": "ObjectType",
                "Type": "Int32"
            },
            {
                "Name": "AnswersTheRegistryEntryId",
                "Type": "String"
            },
            {
                "Name": "MeetingDocumentTypeCode",
                "Type": "String"
            },
            {
                "Name": "VariantFormat",
                "Type": "String"
            },
            {
                "Name": "Version",
                "Type": "Int32"
            },
            {
                "Name": "SendLetter",
                "Type": "Boolean"
            }
        ]
    }
}, {
    "Description": "Get max id for a given table",
    "Name": "NotificationGetMaxId",
    "Parameters": {
        "Parameter": [
            {
                "Name": "TableName",
                "Type": "String"
            }
        ]
    }
}, {
    "Description": "Get existing data in a given table in a given interval",
    "Name": "NotificationGetTableItems",
    "Parameters": {
        "Parameter": [
            {
                "Name": "TableName",
                "Type": "String"
            },
            {
                "Name": "CurrentId",
                "Type": "Int32"
            },
            {
                "Name": "Interval",
                "Type": "Int32"
            }
        ]
    }
}, {
    "Description": "Get current values for a record in a table",
    "Name": "NotificationGetTableValues",
    "Parameters": {
        "Parameter": [
            {
                "Name": "ObjectType",
                "Type": "String"
            },
            {
                "Name": "PrimaryKeys",
                "Type": "String"
            }
        ]
    }
}, {
    "Description": "Get notifications",
    "Name": "NotificationsGetHandler",
    "Parameters": null
}, {
    "Description": "Lag nytt partsbrev som svar på partsbrev",
    "Name": "NyttPartsbrev",
    "Parameters": {
        "Parameter": [
            {
                "Name": "journalpostId",
                "Type": "Int32"
            },
            {
                "Name": "innhold",
                "Type": "String"
            },
            {
                "Name": "leggTilSaksparter",
                "Type": "Boolean"
            }
        ]
    }
}, {
    "Description": "Lag nytt partsbrev som svar på partsbrev",
    "Name": "NyttPartsbrev2",
    "Parameters": {
        "Parameter": [
            {
                "Name": "journalpostId",
                "Type": "Int32"
            },
            {
                "Name": "innhold",
                "Type": "String"
            },
            {
                "Name": "leggTilSaksparter",
                "Type": "Boolean"
            }
        ]
    }
}, {
    "Description": "Build Open Office registry entry document",
    "Name": "OpenOfficeBuildJournpostDocumentHandler",
    "Parameters": {
        "Parameter": [
            {
                "Name": "docId",
                "Type": "Int32"
            },
            {
                "Name": "version",
                "Type": "Int32"
            },
            {
                "Name": "variant",
                "Type": "String"
            },
            {
                "Name": "jpId",
                "Type": "Int32"
            },
            {
                "Name": "saId",
                "Type": "Int32"
            },
            {
                "Name": "ubId",
                "Type": "Int32"
            },
            {
                "Name": "operation",
                "Type": "String"
            },
            {
                "Name": "malNavn",
                "Type": "String"
            },
            {
                "Name": "innholdsMal",
                "Type": "String"
            },
            {
                "Name": "autoTekst",
                "Type": "String"
            },
            {
                "Name": "fileName",
                "Type": "String"
            }
        ]
    }
}, {
    "Description": "Build OpenOffice meeting and DMB document",
    "Name": "OpenOfficeBuildMeetingAndDmbDocumentHandler",
    "Parameters": {
        "Parameter": [
            {
                "Name": "moId",
                "Type": "Int32"
            },
            {
                "Name": "utvId",
                "Type": "Int32"
            },
            {
                "Name": "docType",
                "Type": "String"
            },
            {
                "Name": "offentlig",
                "Type": "Boolean"
            },
            {
                "Name": "ubId",
                "Type": "Int32"
            },
            {
                "Name": "operation",
                "Type": "String"
            },
            {
                "Name": "malNavn",
                "Type": "String"
            },
            {
                "Name": "fileName",
                "Type": "String"
            }
        ]
    }
}, {
    "Description": "Generate OpenOffice meeting and DMB document",
    "Name": "OpenOfficeGenerateMoteDokHandler",
    "Parameters": {
        "Parameter": [
            {
                "Name": "moId",
                "Type": "Int32"
            },
            {
                "Name": "utvId",
                "Type": "Int32"
            },
            {
                "Name": "docType",
                "Type": "String"
            },
            {
                "Name": "offentlig",
                "Type": "Boolean"
            }
        ]
    }
}, {
    "Description": "Oppdaterer navn for ein Sakspart.",
    "Name": "OppdaterSakspartNavn",
    "Parameters": {
        "Parameter": [
            {
                "Name": "SakspartId",
                "Type": "Int32"
            },
            {
                "Name": "Navn",
                "Type": "String"
            }
        ]
    }
}, {
    "Description": "Opphever avskrivning",
    "Name": "OpphevAvskriv",
    "Parameters": {
        "Parameter": [
            {
                "Name": "id",
                "Type": "String"
            },
            {
                "Name": "fromJp",
                "Type": "Boolean"
            }
        ]
    }
}, {
    "Description": "Opprett ad hoc tilgangsgruppe på sak eller journalpost",
    "Name": "OpprettTilgangsgruppeHandler",
    "Parameters": {
        "Parameter": [
            {
                "Name": "sakId",
                "Type": "Int32"
            },
            {
                "Name": "journalpostId",
                "Type": "Int32"
            },
            {
                "Name": "peIds",
                "Type": "String"
            }
        ]
    }
}, {
    "Description": "Avskriver den angitte journalposten.",
    "Name": "OpprettTilskuddsbrevHandler",
    "Parameters": {
        "Parameter": [
            {
                "Name": "saId",
                "Type": "Int32"
            },
            {
                "Name": "behandlingsStatus",
                "Type": "String"
            },
            {
                "Name": "avskrivingsmaate",
                "Type": "String"
            }
        ]
    }
}, {
    "Description": "PdfConverter.DeleteFromPdfConvertHandler",
    "Name": "PdfConverter.DeleteFromPdfConvertHandler",
    "Parameters": {
        "Parameter": [
            {
                "Name": "PDF_JPID_JP",
                "Type": "Int32"
            },
            {
                "Name": "PDF_DOKID_VE",
                "Type": "Int32"
            },
            {
                "Name": "PDF_VERSJON_VE",
                "Type": "Int32"
            },
            {
                "Name": "PDF_VARIANT_VE",
                "Type": "String"
            }
        ]
    }
}, {
    "Description": "PdfConverter.GetChecksumValidationHandler",
    "Name": "PdfConverter.GetChecksumValidationHandler",
    "Parameters": {
        "Parameter": [
            {
                "Name": "fromDate",
                "Type": "DateTime"
            },
            {
                "Name": "toDate",
                "Type": "DateTime"
            }
        ]
    }
}, {
    "Description": "PdfConverter.GetDocumentsHandler",
    "Name": "PdfConverter.GetDocumentsHandler",
    "Parameters": {
        "Parameter": [
            {
                "Name": "fromDate",
                "Type": "DateTime"
            },
            {
                "Name": "toDate",
                "Type": "DateTime"
            },
            {
                "Name": "fileFilter",
                "Type": "String"
            },
            {
                "Name": "methodType",
                "Type": "String"
            }
        ]
    }
}, {
    "Description": "PdfConverter.GetDocumentToConvertFromTableHandler",
    "Name": "PdfConverter.GetDocumentToConvertFromTableHandler",
    "Parameters": {
        "Parameter": [
            {
                "Name": "storageUnit",
                "Type": "String"
            }
        ]
    }
}, {
    "Description": "PdfConverter.GetPdfConvertRowAndSetIsConverting",
    "Name": "PdfConverter.GetPdfConvertRowAndSetIsConverting",
    "Parameters": {
        "Parameter": [
            {
                "Name": "converterName",
                "Type": "String"
            }
        ]
    }
}, {
    "Description": "PdfConverter.GetPdfConvertRowHandler",
    "Name": "PdfConverter.GetPdfConvertRowHandler",
    "Parameters": {
        "Parameter": [
            {
                "Name": "storageUnit",
                "Type": "String"
            }
        ]
    }
}, {
    "Description": "PdfConverter.RemoveConvertFlagHandler",
    "Name": "PdfConverter.RemoveConvertFlagHandler",
    "Parameters": {
        "Parameter": [
            {
                "Name": "VE_DOKID_DB",
                "Type": "Int32"
            },
            {
                "Name": "VE_VERSJON",
                "Type": "Int32"
            },
            {
                "Name": "VE_VARIANT_VF",
                "Type": "String"
            }
        ]
    }
}, {
    "Description": "PdfConverter.RemoveFromQueueHandler",
    "Name": "PdfConverter.RemoveFromQueueHandler",
    "Parameters": {
        "Parameter": [
            {
                "Name": "PDF_JPID_JP",
                "Type": "Int32"
            },
            {
                "Name": "PDF_DOKID_VE",
                "Type": "Int32"
            },
            {
                "Name": "PDF_VERSJON_VE",
                "Type": "Int32"
            },
            {
                "Name": "PDF_VARIANT_VE",
                "Type": "String"
            }
        ]
    }
}, {
    "Description": "PdfConverter.SetPdfConvertStatusHandler",
    "Name": "PdfConverter.SetPdfConvertStatusHandler",
    "Parameters": {
        "Parameter": [
            {
                "Name": "PDF_DOKID_VE",
                "Type": "Int32"
            },
            {
                "Name": "PDF_VERSJON_VE",
                "Type": "Int32"
            },
            {
                "Name": "PDF_VARIANT_VE",
                "Type": "String"
            },
            {
                "Name": "PDF_STATUS",
                "Type": "Int32"
            }
        ]
    }
}, {
    "Description": "PdfConverter.SetPdfConvertStatusToOneHandler",
    "Name": "PdfConverter.SetPdfConvertStatusToOneHandler",
    "Parameters": {
        "Parameter": [
            {
                "Name": "PDF_DOKID_VE",
                "Type": "Int32"
            },
            {
                "Name": "PDF_VERSJON_VE",
                "Type": "Int32"
            },
            {
                "Name": "PDF_VARIANT_VE",
                "Type": "String"
            }
        ]
    }
}, {
    "Description": "Prepare meeting document(s).",
    "Name": "PrepareMeetingDocument",
    "Parameters": {
        "Parameter": [
            {
                "Name": "meetingId",
                "Type": "Int32"
            },
            {
                "Name": "committeeId",
                "Type": "Int32"
            },
            {
                "Name": "documentType",
                "Type": "String"
            },
            {
                "Name": "IsPublic",
                "Type": "Boolean"
            }
        ]
    }
}, {
    "Description": "Queue convert job.",
    "Name": "QueueConvertJob",
    "Parameters": {
        "Parameter": [
            {
                "Name": "documentDescriptionId",
                "Type": "Int32"
            },
            {
                "Name": "versionNumber",
                "Type": "Int32"
            },
            {
                "Name": "variantFormatId",
                "Type": "String"
            },
            {
                "Name": "fileName",
                "Type": "String"
            }
        ]
    }
}, {
    "Description": "Queue merge job.",
    "Name": "QueueMergeJob",
    "Parameters": null
}, {
    "Description": "Remerge a document",
    "Name": "RemergeDocument",
    "Parameters": {
        "Parameter": [
            {
                "Name": "RegistryEntryId",
                "Type": "Int32"
            },
            {
                "Name": "DocumentDescriptionId",
                "Type": "Int32"
            }
        ]
    }
}, {
    "Description": "Remove the follow up flag for 1 to many registry entries.",
    "Name": "RemoveFollowUpFlag",
    "Parameters": {
        "Parameter": [
            {
                "Name": "ArrayOfRecordEntries",
                "Type": "String"
            }
        ]
    }
}, {
    "Description": "Renummerer JournalPost",
    "Name": "RenummererJournalPost",
    "Parameters": {
        "Parameter": [
            {
                "Name": "sakId",
                "Type": "String"
            }
        ]
    }
}, {
    "Description": "Returns the id's from a seek.",
    "Name": "SeekIdList",
    "Parameters": {
        "Parameter": [
            {
                "Name": "PredefSearchId",
                "Type": "Int32"
            },
            {
                "Name": "FieldName",
                "Type": "String"
            },
            {
                "Name": "MaxResultCount",
                "Type": "Int32"
            }
        ]
    }
}, {
    "Description": "Send mail to approver of registry-entry (journalpost).",
    "Name": "SendMailToApproverOfRegistryEntry",
    "Parameters": {
        "Parameter": [
            {
                "Name": "jpId",
                "Type": "Int32"
            },
            {
                "Name": "pnId",
                "Type": "Int32"
            }
        ]
    }
}, {
    "Description": "Sends email message",
    "Name": "SendMessage",
    "Parameters": {
        "Parameter": [
            {
                "Name": "objectId",
                "Type": "Int32"
            },
            {
                "Name": "objectType",
                "Type": "Int32"
            },
            {
                "Name": "ekspeder",
                "Type": "Boolean"
            },
            {
                "Name": "includeDocs",
                "Type": "Boolean"
            },
            {
                "Name": "verificationText",
                "Type": "String"
            },
            {
                "Name": "fromMailAddress",
                "Type": "String"
            },
            {
                "Name": "toMailAddress",
                "Type": "String"
            },
            {
                "Name": "ccMailAddress",
                "Type": "String"
            },
            {
                "Name": "fromNames",
                "Type": "String"
            },
            {
                "Name": "toNames",
                "Type": "String"
            },
            {
                "Name": "ccNames",
                "Type": "String"
            },
            {
                "Name": "body",
                "Type": "String"
            },
            {
                "Name": "htmlBody",
                "Type": "String"
            },
            {
                "Name": "subject",
                "Type": "String"
            },
            {
                "Name": "dokJpId",
                "Type": "String"
            },
            {
                "Name": "directory",
                "Type": "String"
            },
            {
                "Name": "sendMessage",
                "Type": "Boolean"
            },
            {
                "Name": "dokType",
                "Type": "String"
            },
            {
                "Name": "excludeDocNumber",
                "Type": "String"
            },
            {
                "Name": "replacementMainDocumentFile",
                "Type": "String"
            }
        ]
    }
}, {
    "Description": "SetDisposal",
    "Name": "SetDisposal",
    "Parameters": {
        "Parameter": [
            {
                "Name": "saId",
                "Type": "String"
            },
            {
                "Name": "saKasskode",
                "Type": "String"
            },
            {
                "Name": "saBevtid",
                "Type": "String"
            }
        ]
    }
}, {
    "Description": "Sets message to unread",
    "Name": "SetMessageUnread",
    "Parameters": {
        "Parameter": [
            {
                "Name": "providerId",
                "Type": "String"
            },
            {
                "Name": "messageId",
                "Type": "String"
            },
            {
                "Name": "unread",
                "Type": "Boolean"
            }
        ]
    }
}, {
    "Description": "Set objectcolumn values",
    "Name": "SetObjectColumnValues",
    "Parameters": {
        "Parameter": [
            {
                "Name": "instantiateCriteria",
                "Type": "String"
            },
            {
                "Name": "newValues",
                "Type": "String"
            },
            {
                "Name": "refreshRecord",
                "Type": "Boolean"
            }
        ]
    }
}, {
    "Description": "Setter publiseringsflagg på dokument.",
    "Name": "SetPubStatusDokHandler",
    "Parameters": {
        "Parameter": [
            {
                "Name": "docIds",
                "Type": "String"
            },
            {
                "Name": "jpIds",
                "Type": "String"
            },
            {
                "Name": "flag",
                "Type": "Int32"
            }
        ]
    }
}, {
    "Description": "Setter publiseringsflagg på journpost.",
    "Name": "SetPubStatusJpHandler",
    "Parameters": {
        "Parameter": [
            {
                "Name": "jpIds",
                "Type": "String"
            },
            {
                "Name": "flag",
                "Type": "Int32"
            }
        ]
    }
}, {
    "Description": "Setter publiseringsflagg på sak.",
    "Name": "SetPubStatusSakHandler",
    "Parameters": {
        "Parameter": [
            {
                "Name": "saId",
                "Type": "Int32"
            },
            {
                "Name": "flag",
                "Type": "Int32"
            }
        ]
    }
}, {
    "Description": "Setter publiseringsflagg på utvalgsbehandling dokument.",
    "Name": "SetPubStatusUtvmotedokHandler",
    "Parameters": {
        "Parameter": [
            {
                "Name": "docIds",
                "Type": "String"
            },
            {
                "Name": "flag",
                "Type": "Int32"
            }
        ]
    }
}, {
    "Description": "Setter publiseringsflagg på utvalhsbehandling dokument.",
    "Name": "SetPubStatusUtvSakBehDokHandler",
    "Parameters": {
        "Parameter": [
            {
                "Name": "docIds",
                "Type": "String"
            },
            {
                "Name": "behIds",
                "Type": "String"
            },
            {
                "Name": "flag",
                "Type": "Int32"
            }
        ]
    }
}, {
    "Description": "Setter publiseringsflagg på utvalgsbehandling dokument.",
    "Name": "SetPubStatusUtvSakBehHandler",
    "Parameters": {
        "Parameter": [
            {
                "Name": "ubIds",
                "Type": "String"
            },
            {
                "Name": "flag",
                "Type": "Int32"
            }
        ]
    }
}, {
    "Description": "Sets readflag on objects",
    "Name": "SetRead",
    "Parameters": {
        "Parameter": [
            {
                "Name": "objectType",
                "Type": "Int32"
            },
            {
                "Name": "id",
                "Type": "Int32"
            }
        ]
    }
}, {
    "Description": "Sets recent",
    "Name": "SetRecent",
    "Parameters": {
        "Parameter": [
            {
                "Name": "objectTypeEnumAsInt",
                "Type": "Int32"
            },
            {
                "Name": "id",
                "Type": "Int32"
            }
        ]
    }
}, {
    "Description": "Avskriver den angitte journalposten.",
    "Name": "SetRecordEntryStatus",
    "Parameters": {
        "Parameter": [
            {
                "Name": "RecordEntryId",
                "Type": "Int32"
            },
            {
                "Name": "Status",
                "Type": "String"
            },
            {
                "Name": "RefreshRecord",
                "Type": "Boolean"
            }
        ]
    }
}, {
    "Description": "Sets case status",
    "Name": "SetSAStatus",
    "Parameters": {
        "Parameter": [
            {
                "Name": "sakId",
                "Type": "Int32"
            },
            {
                "Name": "status",
                "Type": "String"
            },
            {
                "Name": "refreshRecord",
                "Type": "Boolean"
            }
        ]
    }
}, {
    "Description": "Setter journalpoststatus til J",
    "Name": "SettJpStatusJ",
    "Parameters": {
        "Parameter": [
            {
                "Name": "journalpostIder",
                "Type": "String"
            }
        ]
    }
}, {
    "Description": "Setter en sak til ferdigmeldt.",
    "Name": "SettSakTilFerdigmeldt",
    "Parameters": {
        "Parameter": [
            {
                "Name": "sakId",
                "Type": "Int32"
            }
        ]
    }
}, {
    "Description": "Mark version as active",
    "Name": "SettVersjonAktiv",
    "Parameters": {
        "Parameter": [
            {
                "Name": "docDescriptionId",
                "Type": "Int32"
            },
            {
                "Name": "version",
                "Type": "Int32"
            },
            {
                "Name": "variant",
                "Type": "String"
            },
            {
                "Name": "registryEntryId",
                "Type": "Int32"
            },
            {
                "Name": "fieldName",
                "Type": "String"
            }
        ]
    }
}, {
    "Description": "Egen funksjon for Skd. Henter Mva saksbehandler.",
    "Name": "SkdHentMvaSaksbehandler",
    "Parameters": {
        "Parameter": [
            {
                "Name": "saId",
                "Type": "String"
            },
            {
                "Name": "dokKategori",
                "Type": "String"
            }
        ]
    }
}, {
    "Description": "Imports xml",
    "Name": "SusCreateXml",
    "Parameters": {
        "Parameter": [
            {
                "Name": "xml",
                "Type": "String"
            }
        ]
    }
}, {
    "Description": "A simple test. Returns the parameter value.",
    "Name": "Test",
    "Parameters": {
        "Parameter": [
            {
                "Name": "testParameter",
                "Type": "String"
            }
        ]
    }
}, {
    "Description": "Retunerer gyldige tilgangskoder for den gjeldende bruker.",
    "Name": "Tilgangskoder",
    "Parameters": {
        "Parameter": [
            {
                "Name": "saksbehandler",
                "Type": "Int32"
            }
        ]
    }
}, {
    "Description": "Total saksfremstilling",
    "Name": "TotalSaksFremstillingHandler",
    "Parameters": {
        "Parameter": [
            {
                "Name": "moId",
                "Type": "Int32"
            },
            {
                "Name": "docType",
                "Type": "String"
            }
        ]
    }
}, {
    "Description": "TransferFromNcore",
    "Name": "TransferFromNcore",
    "Parameters": {
        "Parameter": [
            {
                "Name": "FileName",
                "Type": "String"
            },
            {
                "Name": "StartingByte",
                "Type": "Int64"
            },
            {
                "Name": "LengthInBytes",
                "Type": "Int32"
            }
        ]
    }
}, {
    "Description": "TransferToNcore",
    "Name": "TransferToNcore",
    "Parameters": {
        "Parameter": [
            {
                "Name": "FileName",
                "Type": "String"
            },
            {
                "Name": "Directory",
                "Type": "String"
            },
            {
                "Name": "DeleteExistingFile",
                "Type": "Boolean"
            },
            {
                "Name": "Buffer",
                "Type": "Object"
            }
        ]
    }
}, {
    "Description": "Updates a criteriaCollection.",
    "Name": "UpdateCriteria",
    "Parameters": {
        "Parameter": [
            {
                "Name": "criteriaCollection",
                "Type": "String"
            }
        ]
    }
}, {
    "Description": "Updates a document template.",
    "Name": "UpdateDocumentTemplate",
    "Parameters": {
        "Parameter": [
            {
                "Name": "DocumentTemplateId",
                "Type": "Int32"
            },
            {
                "Name": "FieldName",
                "Type": "String"
            },
            {
                "Name": "FieldValue",
                "Type": "String"
            },
            {
                "Name": "TemplateAsByteArray",
                "Type": "Object"
            }
        ]
    }
}, {
    "Description": "ValidateExternalSystemHost",
    "Name": "ValidateExternalSystemHost",
    "Parameters": {
        "Parameter": [
            {
                "Name": "SYSTEM_NAME",
                "Type": "String"
            },
            {
                "Name": "SYSTEM_HOST",
                "Type": "String"
            },
            {
                "Name": "SYSTEM_HOST_HEADERS",
                "Type": "String"
            }
        ]
    }
}, {
    "Description": "Build and send ValidateSenderRecipientDispatch request",
    "Name": "ValidateSenderRecipientDispatch",
    "Parameters": {
        "Parameter": [
            {
                "Name": "id",
                "Type": "Int32"
            },
            {
                "Name": "sendingMethodId",
                "Type": "String"
            }
        ]
    }
}, {
    "Description": "Vis samlet saksfremstilling",
    "Name": "VisSamletSaksfremstillingHandler",
    "Parameters": {
        "Parameter": [
            {
                "Name": "jpId",
                "Type": "Int32"
            }
        ]
    }
}, {
    "Description": "Zips OneNote files.",
    "Name": "ZipDocToOneNote",
    "Parameters": {
        "Parameter": [
            {
                "Name": "meetingId",
                "Type": "Int32"
            },
            {
                "Name": "committeeId",
                "Type": "Int32"
            },
            {
                "Name": "documentType",
                "Type": "String"
            },
            {
                "Name": "IsPublic",
                "Type": "Boolean"
            },
            {
                "Name": "usePdfFormat",
                "Type": "Boolean"
            },
            {
                "Name": "refData",
                "Type": "Object"
            }
        ]
    }
}]
